[
{"event_name": "\n                                ESTAS TONNE & MICHAEL SHRIEVE\n                            ", "event_country": "Russian Federation", "event_city": "Moscow", "event_date": "2019-04-28 00:00:00", "artist_name": "Estas Tonne"},
{"event_name": "\n                                Goran Bregovi\u0107 & his Wedding and Funeral Band - Three Letters from Sarajevo\n                            ", "event_country": "Italy", "event_city": "Roma", "event_date": "2019-03-31 00:00:00", "artist_name": "Goran Bregovi%C4%87"},
{"event_name": "\n                                Couleur Caf\u00e9 2019\n                            ", "event_country": "Belgium", "event_city": "Brussels", "event_date": "2019-06-28 00:00:00", "artist_name": "Goran Bregovi%C4%87"},
{"event_name": "\n                                GORAN BREGOVI\u0106 & BIJELO DUGME & WEDDING AND FUNERAL BAND - \"THE BEST OF\"\n                            ", "event_country": "Poland", "event_city": "Wroc\u0142aw", "event_date": "2019-11-07 00:00:00", "artist_name": "Goran Bregovi%C4%87"},
{"event_name": "\n                                MareaRock 2019\n                            ", "event_country": "Spain", "event_city": "Murcia", "event_date": "2019-04-13 00:00:00", "artist_name": "The Rumjacks"},
{"event_name": "\n                                Groezrock 2019\n                            ", "event_country": "Belgium", "event_city": "Meerhout", "event_date": "2019-04-26 00:00:00", "artist_name": "The Rumjacks"},
{"event_name": "\n                                Hellfest 2019\n                            ", "event_country": "France", "event_city": "Clisson", "event_date": "2019-06-21 00:00:00", "artist_name": "The Rumjacks"},
{"event_name": "\n                                Mission Ready Festival\n                            ", "event_country": "Germany", "event_city": "Giebelstadt", "event_date": "2019-07-06 00:00:00", "artist_name": "The Rumjacks"},
{"event_name": "\n                                Smoke Over Warsaw 2019\n                            ", "event_country": "Poland", "event_city": "Warszawa", "event_date": "2019-06-15 00:00:00", "artist_name": "Somali Yacht Club"},
{"event_name": "\n                                Pinkpop 2019\n                            ", "event_country": "Netherlands", "event_city": "Landgraaf", "event_date": "2019-06-08 00:00:00", "artist_name": "The Marcus King Band"},
{"event_name": "\n                                Tinderbox Festival 2019\n                            ", "event_country": "Denmark", "event_city": "Odense V", "event_date": "2019-06-27 00:00:00", "artist_name": "The Marcus King Band"},
{"event_name": "\n                                Rock Werchter 2019\n                            ", "event_country": "Belgium", "event_city": "Werchter", "event_date": "2019-06-27 00:00:00", "artist_name": "The Marcus King Band"},
{"event_name": "\n                                Live Nation Presents\u2026 Chris Stapleton w/ Margo Price \u2022 The Marcus King Band\n                            ", "event_country": "United States", "event_city": "Colombia, Maryland", "event_date": "2019-08-11 00:00:00", "artist_name": "The Marcus King Band"},
{"event_name": "\n                                Woodstock 50\n                            ", "event_country": "United States", "event_city": "Watkins Glen, NY", "event_date": "2019-08-16 00:00:00", "artist_name": "The Marcus King Band"},
{"event_name": "\n                                Sea.Hear.Now\n                            ", "event_country": "United States", "event_city": "Asbury Park, NJ", "event_date": "2019-09-21 00:00:00", "artist_name": "The Marcus King Band"},
{"event_name": "\n                                Naxatras\n                            ", "event_country": "Greece", "event_city": "Thessalon\u00edki", "event_date": "2019-03-30 00:00:00", "artist_name": "Naxatras"},
{"event_name": "\n                                Naxatras\n                            ", "event_country": "Spain", "event_city": "Madrid", "event_date": "2019-04-18 00:00:00", "artist_name": "Naxatras"},
{"event_name": "\n                                Naxatras\n                            ", "event_country": "Belgium", "event_city": "Brussels", "event_date": "2019-04-24 00:00:00", "artist_name": "Naxatras"},
{"event_name": "\n                                Naxatras\n                            ", "event_country": "Germany", "event_city": "M\u00fcnster", "event_date": "2019-04-26 00:00:00", "artist_name": "Naxatras"},
{"event_name": "\n                                Desertfest Berlin 2019\n                            ", "event_country": "Germany", "event_city": "Berlin", "event_date": "2019-05-03 00:00:00", "artist_name": "Naxatras"},
{"event_name": "\n                                Desertfest London 2019\n                            ", "event_country": "United Kingdom", "event_city": "Camden Town, London NW1", "event_date": "2019-05-03 00:00:00", "artist_name": "Naxatras"},
{"event_name": "\n                                Rock im Wald 2019\n                            ", "event_country": "Germany", "event_city": "Neuensee bei Lichtenfels", "event_date": "2019-07-26 00:00:00", "artist_name": "Naxatras"},
{"event_name": "\n                                \u0414\u0438\u043a\u0430\u044f \u041c\u044f\u0442\u0430 2019\n                            ", "event_country": "Russian Federation", "event_city": "\u0411\u0443\u043d\u044b\u0440\u0435\u0432\u043e", "event_date": "2019-06-28 00:00:00", "artist_name": "Dubioza Kolektiv"},
{"event_name": "\n                                Iboga Summer Festival 2019\n                            ", "event_country": "Spain", "event_city": "Valencia", "event_date": "2019-07-24 00:00:00", "artist_name": "Dubioza Kolektiv"},
{"event_name": "\n                                Dubioza Kolektiv\n                            ", "event_country": "Bulgaria", "event_city": "Sofia", "event_date": "2019-11-29 00:00:00", "artist_name": "Dubioza Kolektiv"},
{"event_name": "\n                                The Australian Pink Floyd Show\n                            ", "event_country": "Germany", "event_city": "Suhl", "event_date": "2019-03-20 00:00:00", "artist_name": "The Australian Pink Floyd Show"},
{"event_name": "\n                                The Australian Pink Floyd Show\n                            ", "event_country": "France", "event_city": "Boulogne-Billancourt", "event_date": "2019-04-14 00:00:00", "artist_name": "The Australian Pink Floyd Show"},
{"event_name": "\n                                The Australian Pink Floyd\n                            ", "event_country": "United Kingdom", "event_city": "Bournemouth", "event_date": "2019-12-07 00:00:00", "artist_name": "The Australian Pink Floyd Show"}
]